{
  "drawing": [
    "Une bite",
    "Une éponge",
    "Un ordinateur",
    "Un livre",
    "Le yoga",
    "Une maison",
    "Un chat",
    "Inversion des poles magnetiques",
    "Un dessin",
    "Un cheveu",
    "La France Macron",
    "Une lunette de toilette",
    "Un Nerf",
    "Une imprimante 3D",
    "Un mouton",
    "Un octogone",
    "Le combiné nordique",
    "Radiateur",
    "Un facteur",
    "Le soleil",
    "Un casque de velo",
    "Une bouteille de vin",
    "La colere",
    "Noyer le poisson",
    "Alto cumulonimbus",
    "Une méningite",
    "Une isolation phonique",
    "Un bit de poids fort",
    "La reproduction des grenouilles",
    "Une molécule de benzène",
    "Ginko",
    "Le Taj Mahal",
    "Un Jedi",
    "Les photos",
    "Un téléphone",
    "Un lancer d'oignon",
    "Une mammographie",
    "Le Japon",
    "Une Stan Smith taille 42",
    "Des Air Pods",
    "Un bol de céréales",
    "Une pizza",
    "Des cookies",
    "Un cerveau",
    "L'Empire communiste dans les années 50",
    "Une boite de raviolis au saumon",
    "Un squelette",
    "Un requin",
    "Un poisson",
    "La chèvre de Monsieur Seguin",
    "Che Guevara",
    "Mario",
    "Une enceinte hi-fi",
    "Une casserole",
    "Un boeuf bourguignon",
    "Une brique",
    "Une fontaine",
    "Une tuile",
    "La cathédrale de Reims",
    "Une clé de 12",
    "Un cheval",
    "La congolexicomatisation des lois du marché",
    "MIPS",
    "Des petits pois carottes",
    "Une sage-femme",
    "Berger",
    "Artichaud",
    "Une brosse à toilettes",
    "Un rouleau de PQ",
    "Le cheval blanc d'Henri IV",
    "Ok boomer",
    "Une schnitzel",
    "Une kartoffelsalad",
    "Michel Drucker",
    "Une Nintendo Switch",
    "Un espace vectoriel",
    "Il pleut comme vache qui pisse",
    "Ne pas avoir les yeux en face des trous",
    "Jeter Mamie dans les orties",
    "Tirer sur l'ambulance",
    "Inventer l'eau tiède",
    "Qui fait le ravin tombe dans le malin",
    "Une galette comtoise",
    "Couscous Garbit",
    "Une carte Google Play",
    "Minecraft",
    "Tipiak",
    "Jack Sparrow",
    "Le Joker",
    "Un PC Gaming",
    "Une ventilation",
    "La Suisse",
    "Internet",
    "Steak haché",
    "Un hamburger",
    "Le capitalisme",
    "Un iMac",
    "Un trou noir",
    "Saturne",
    "Une antilope",
    "Un vinyl",
    "git blame",
    "La start-up nation",
    "Le yoga",
    "Freddy Mercury",
    "Le forum 15-18",
    "Une Game Jam",
    "Un bus",
    "De l'eau",
    "Un ballon de basketball",
    "Une feuille de style CSS",
    "La barre d'espace",
    "Un frigidaire",
    "Un monosourcil",
    "Votre numéro de carte bancaire",
    "Une douzaine d'oeuf",
    "Un journal",
    "Un ours",
    "Une guitare",
    "La drogue",
    "Un poisson",
    "La vraie Joconde",
    "Johnny",
    "Un pygargue",
    "Une feuille A4",
    "Un pull de Noel",
    "Zinedine Zidane",
    "La Tektonik",
    "La Macarena",
    "Un feu d'artifice",
    "Une bande dessinée",
    "Jeter bébé avec l'eau du bain",
    "La réponse D",
    "Un lampadaire",
    "Un photon",
    "Du romarin",
    "Des profiterolles",
    "La calvitie",
    "Un ventilateur",
    "Des statistiques",
    "Du fromage",
    "Les Jeux Olympiques",
    "Le lancer de javelot",
    "Le FOOT",
    "Un microscope",
    "Un grille-pain",
    "Une loupe",
    "Un pompiste",
    "Un stylo",
    "Un pneu",
    "Un clown",
    "Une baleine",
    "Une baignoire",
    "Un savon de Marseille",
    "Un petit bonhomme en mousse",
    "Une pipe",
    "Un bonbon",
    "Un cadeau",
    "Une Renault Clio",
    "Une Multipla",
    "Besançon",
    "La Tour Eiffel",
    "Valéry Giscard d'Estaing",
    "Un elfe",
    "Une horloge comtoise",
    "Le pendule de Foucault",
    "Albert Einstein",
    "Éternuer",
    "Le feu",
    "Un orage",
    "La natation synchronisée",
    "Une course de Formule 1",
    "Une clé USB",
    "Le Titanic",
    "Une main",
    "Une queue de cheval",
    "Un pont",
    "Un potager",
    "Un parapluie",
    "Un panda",
    "Une pile",
    "La caisse du Franprix",
    "Des spaghettis bolognaise",
    "Une sortie de secours",
    "Une moustache",
    "Une chemise",
    "Une piscine",
    "Un hélicoptère de combat Apache AH-64",
    "Une raquette de tennis",
    "Un volant de badminton",
    "Une fusée",
    "Un gant de boxe",
    "Une fourchette",
    "Un anemomètre",
    "Un sioux",
    "James Bond",
    "Mickey Mouse",
    "La mere de ton voisin de droite",
    "Les premiers pas sur la lune",
    "Une recette",
    "Une vidéo amateur",
    "Lavage de cerveau",
    "Un castor",
    "Un chameau",
    "Une femme à barbe",
    "Musique d'ascenseur",
    "Un sandwich au thon",
    "Vache folle",
    "Poseïdon",
    "Haleine de chacal",
    "Une couche",
    "Les chaises musicales",
    "Un TARDIS",
    "Blanche neige et les 7 nains",
    "Gaucher",
    "Chef indien",
    "Les pieds froids",
    "Le moulin rouge",
    "Star Wars",
    "Le seigneur des anneaux",
    "Harry Potter",
    "Yoda",
    "Titanic",
    "Venus de Milo",
    "Le David de Michel-Ange",
    "Dark Vador",
    "Deux ananas",
    "Un colocataire",
    "La baby-sitter",
    "Trotinette électrique",
    "Chaton",
    "Un OVNI",
    "Balle au prisonnier",
    "Statue de la liberté",
    "Saint-Valentin",
    "Dragon",
    "Des rides",
    "Un vélo tandem",
    "Mère nature",
    "Batman",
    "Femme enceinte",
    "Louis XIV",
    "Napoléon",
    "Pole Dance",
    "Las Vegas",
    "Strip-teaseuse",
    "Bal musette",
    "Le roi arthur",
    "Ninja",
    "Canard en plastique",
    "Prêtre",
    "Il pleut comme vache qui pisse",
    "Raclette",
    "Golum"
  ]
}
